<?xml version="1.0" encoding="utf-8"?>
<!-- Generator: Adobe Illustrator 23.0.4, SVG Export Plug-In . SVG Version: 6.00 Build 0)  -->
<svg version="1.1" id="Capa_1" xmlns="http://www.w3.org/2000/svg" xmlns:xlink="http://www.w3.org/1999/xlink" x="0px" y="0px"
	 viewBox="0 0 30 30" style="enable-background:new 0 0 30 30;" xml:space="preserve">
<g>
	<g>
		<g>
			<path d="M28.3,30H1.7c-0.6,0-1-0.5-1-1V10.4c0-0.6,0.5-1,1-1s1,0.5,1,1v17.6h24.6V7.3H1.7c-0.6,0-1-0.5-1-1s0.5-1,1-1h26.7
				c0.6,0,1,0.5,1,1V29C29.4,29.5,28.9,30,28.3,30z"/>
		</g>
	</g>
	<g>
		<path d="M9.4,16.7h-3c-0.4,0-0.6-0.3-0.6-0.6V13c0-0.4,0.3-0.6,0.6-0.6h3c0.4,0,0.6,0.3,0.6,0.6v3.1C10.1,16.4,9.8,16.7,9.4,16.7z
			"/>
		<path d="M16.5,16.7h-3c-0.4,0-0.6-0.3-0.6-0.6V13c0-0.4,0.3-0.6,0.6-0.6h3c0.4,0,0.6,0.3,0.6,0.6v3.1
			C17.1,16.4,16.8,16.7,16.5,16.7z"/>
		<path d="M23.5,16.7h-3c-0.4,0-0.6-0.3-0.6-0.6V13c0-0.4,0.3-0.6,0.6-0.6h3c0.4,0,0.6,0.3,0.6,0.6v3.1
			C24.2,16.4,23.9,16.7,23.5,16.7z"/>
		<path d="M9.4,23.1h-3c-0.4,0-0.6-0.3-0.6-0.6v-3.1c0-0.4,0.3-0.6,0.6-0.6h3c0.4,0,0.6,0.3,0.6,0.6v3.1
			C10.1,22.8,9.8,23.1,9.4,23.1z"/>
		<path d="M16.5,23.1h-3c-0.4,0-0.6-0.3-0.6-0.6v-3.1c0-0.4,0.3-0.6,0.6-0.6h3c0.4,0,0.6,0.3,0.6,0.6v3.1
			C17.1,22.8,16.8,23.1,16.5,23.1z"/>
		<path d="M23.5,23.1h-3c-0.4,0-0.6-0.3-0.6-0.6v-3.1c0-0.4,0.3-0.6,0.6-0.6h3c0.4,0,0.6,0.3,0.6,0.6v3.1
			C24.2,22.8,23.9,23.1,23.5,23.1z"/>
	</g>
	<g>
		<path d="M5.6,4.3c-0.6,0-1.1-0.5-1.1-1.1V1.1C4.4,0.5,4.9,0,5.6,0s1.1,0.5,1.1,1.1v2.1C6.7,3.8,6.2,4.3,5.6,4.3z"/>
		<path d="M24.4,4.3c-0.6,0-1.1-0.5-1.1-1.1V1.1c0-0.6,0.5-1.1,1.1-1.1c0.6,0,1.1,0.5,1.1,1.1v2.1C25.6,3.8,25.1,4.3,24.4,4.3z"/>
	</g>
</g>
</svg>
